[
  {
    "id": "123e4567-e89b-12d3-a456-426614174001",
    "name": "Laptop",
    "price": 999.99
  },
  {
    "id": "123e4567-e89b-12d3-a456-426614174002",
    "name": "Wireless Mouse",
    "price": 49.99
  },
  {
    "id": "123e4567-e89b-12d3-a456-426614174003",
    "name": "Keyboard",
    "price": 89.99
  },
  {
    "id": "123e4567-e89b-12d3-a456-426614174004",
    "name": "Monitor",
    "price": 199.99
  },
  {
    "id": "123e4567-e89b-12d3-a456-426614174005",
    "name": "Webcam",
    "price": 69.99
  }
]
